\relax 
\citation{simplifiedGenAllSeq_GEARTRAIN}
\citation{PostProcessingRafiCampbell}
\citation{plansForRobotExec}
\citation{simplifiedGenAllSeq_GEARTRAIN}
\citation{mnfgTime}
\citation{ANDOR_original,taxonomyOverview,validationBlock_kheder2017}
\citation{taxonomyOverview}
\citation{IKEA,kmeansRRT45,volumeAreaFitness2}
\citation{kmeansRRT45,volumeAreaFitness2}
\citation{volumeAreaFitness,volumeAreaFitness2}
\citation{topologyCycleMerge}
\citation{kmeansRRT45}
\citation{userDefinedConstraintDir}
\citation{RestrictCollsnChecksSampleIsocahedron,CollsnCheckSubsOnly}
\citation{OpposingFacetNormals}
\citation{RestrictCollsnChecksSampleIsocahedron}
\citation{InferringAsmDirectionsPCL}
\citation{EfficientCollisionByProjection_RGHTANGLGBOX}
\citation{fuzzyCurveDetect_Campbell,InferringAsmDirectionsPCL}
\@writefile{toc}{\contentsline {section}{\numberline {I}Introduction}{1}}
\@writefile{toc}{\contentsline {section}{\numberline {II}Related Work}{1}}
\newlabel{SECT_related}{{II}{1}}
\citation{AsmSizeComplexity}
\citation{subComplexity}
\citation{kmeansRRT45}
\citation{BigPartsSupportSubs}
\citation{volumeAreaFitness}
\citation{volumeAreaFitness2}
\citation{forceFlowDisasm}
\citation{maxFlowMinCut}
\citation{CollsnCheckSubsOnly}
\citation{SurveyAngryReviewer}
\citation{ANDOR_original,NDBGoriginal}
\citation{StabilityForGraphSearch,FastenerPredicateAngryReviewer}
\citation{FastenerEnvelopePredicate,FastenerPredicateAngryReviewer}
\citation{StabilityForGraphSearch,FastenerPredicateAngryReviewer}
\citation{PostProcessingRafiCampbell}
\citation{FastenerPredicateAngryReviewer,ghandi2015breakout}
\citation{GAStabilityScoreLocalCollision}
\citation{GAShuffleChemotaxisBasisVec,GAOtherLongSeq}
\citation{GAAccessibleRotation}
\citation{GALengthFeasible,GAOtherLongSeq}
\citation{GAOtherLongSeq}
\citation{FireWorksDiscrete}
\citation{FireflyVisualRange}
\citation{GravityFirefly}
\citation{ghandi2015breakout}
\citation{SingleArmAsmRegraspWanHarada}
\citation{kmeansRRT45}
\@writefile{lof}{\contentsline {figure}{\numberline {1}{\ignorespaces Module Box test case, created for this experiment\relax }}{2}}
\providecommand*\caption@xref[2]{\@setref\relax\@undefined{#1}}
\newlabel{moduleBoxTopDown}{{1}{2}}
\@writefile{toc}{\contentsline {subsection}{\numberline {\unhbox \voidb@x \hbox {II-A}}Subassembly Identification}{2}}
\@writefile{toc}{\contentsline {subsection}{\numberline {\unhbox \voidb@x \hbox {II-B}}Approaches to ASP}{2}}
\@writefile{toc}{\contentsline {subsubsection}{\numberline {\unhbox \voidb@x \hbox {II-B}1}Graph Methods}{2}}
\@writefile{toc}{\contentsline {subsubsection}{\numberline {\unhbox \voidb@x \hbox {II-B}2}Soft Search Methods}{2}}
\citation{SandiaModularFixture,FxtrSocialAutoBody,SupportOnPinsWanHarada}
\citation{FastenerPredicateAngryReviewer}
\citation{forceFlowDisasm,flexibleParts}
\@writefile{toc}{\contentsline {subsubsection}{\numberline {\unhbox \voidb@x \hbox {II-B}3}Hybrid Methods}{3}}
\@writefile{toc}{\contentsline {section}{\numberline {III}Methods}{3}}
\newlabel{SECT_methods}{{III}{3}}
\@writefile{toc}{\contentsline {subsection}{\numberline {\unhbox \voidb@x \hbox {III-A}}Motivation \& Basis}{3}}
\@writefile{toc}{\contentsline {subsection}{\numberline {\unhbox \voidb@x \hbox {III-B}}Assumptions and Constraints}{3}}
\newlabel{SECT_assume}{{\unhbox \voidb@x \hbox {III-B}}{3}}
\newlabel{asmp2}{{2}{3}}
\@writefile{toc}{\contentsline {subsection}{\numberline {\unhbox \voidb@x \hbox {III-C}}Removal Space \& Blocking Fraction}{3}}
\citation{geodesic}
\citation{freedomCone}
\citation{projectionCone2p5D}
\@writefile{lot}{\contentsline {table}{\numberline {I}{\ignorespaces Freedom Classes, Ordered by decreasing constraints\relax }}{4}}
\newlabel{TBL_freedomClass}{{I}{4}}
\@writefile{toc}{\contentsline {subsection}{\numberline {\unhbox \voidb@x \hbox {III-D}}Disassembly Influence Graph}{4}}
\@writefile{lof}{\contentsline {figure}{\numberline {2}{\ignorespaces Intersection surfaces, Prismatic Unidirectional. The dark pink block sits in a recess that only allows translation in one direction. The green block obstructs its path, and intersects approximately 34\% of the projected surface area, so 0.34 is the blocking fraction.\relax }}{4}}
\newlabel{uniShell}{{2}{4}}
\@writefile{toc}{\contentsline {subsection}{\numberline {\unhbox \voidb@x \hbox {III-E}}Subassembly Identification by Interference Reduction}{4}}
\newlabel{SIR}{{\unhbox \voidb@x \hbox {III-E}}{4}}
\citation{BigPartsSupportSubs}
\@writefile{lof}{\contentsline {figure}{\numberline {3}{\ignorespaces Intersection surfaces, Planar Constrained. The light blue block is constrained from behind, below, and on either side. Its possible translation directions are found on the 90$^\circ $ arc shown, so its intersection surfaces are revolved line segments constrained to this arc and of the same width as the part.\relax }}{5}}
\newlabel{planarShell}{{3}{5}}
\@writefile{lof}{\contentsline {figure}{\numberline {4}{\ignorespaces Intersection surfaces, Spherical Pyramid. The cube shown sits in a recess that allows for positive translation along the three principal axes, or any direction in between. Our method assumes that in order to be removed, the cube will pass through the intersection surfaces that occupy \sfrac {1}{8} of a sphere\relax }}{5}}
\newlabel{sphereShell}{{4}{5}}
\@writefile{loa}{\contentsline {algorithm}{\numberline {1}{\ignorespaces Disassembly Interference Graph for an Assembly\relax }}{5}}
\newlabel{asmNRG}{{1}{5}}
\citation{kmeansRRT45}
\citation{HANDEY}
\citation{NDBGoriginal}
\citation{RegraspSphericalWanHarada}
\citation{SphericalFreedomProjectedSurfaces,RegraspSphericalWanHarada,OpposingFacetNormals,InferringAsmDirectionsPCL,RestrictCollsnChecksSampleIsocahedron}
\citation{clusterMeshGrasp}
\citation{geodesic}
\citation{forceFlowDisasm}
\@writefile{toc}{\contentsline {subsection}{\numberline {\unhbox \voidb@x \hbox {III-F}}Geometric Pre-Processing}{6}}
\newlabel{geoNDBG}{{\unhbox \voidb@x \hbox {III-F}}{6}}
\@writefile{toc}{\contentsline {subsection}{\numberline {\unhbox \voidb@x \hbox {III-G}}Path Planning for Action Validation}{6}}
\newlabel{validate}{{\unhbox \voidb@x \hbox {III-G}}{6}}
\@writefile{toc}{\contentsline {subsection}{\numberline {\unhbox \voidb@x \hbox {III-H}}Evaluation}{6}}
\newlabel{evaluation}{{\unhbox \voidb@x \hbox {III-H}}{6}}
\citation{kmeansRRT45}
\citation{volumeAreaFitness2}
\citation{kmeansRRT45}
\citation{BigPartsSupportSubs}
\citation{volumeAreaFitness2}
\citation{BigPartsSupportSubs,volumeAreaFitness2}
\citation{BigPartsSupportSubs}
\citation{volumeAreaFitness2}
\citation{antColony_DRIVEMOTOR}
\citation{toyPlane_lee}
\citation{validationBlock_kheder2017}
\@writefile{toc}{\contentsline {section}{\numberline {IV}Experiments}{7}}
\newlabel{SECT_experiment}{{IV}{7}}
\@writefile{toc}{\contentsline {subsection}{\numberline {\unhbox \voidb@x \hbox {IV-A}}Compared Methods}{7}}
\@writefile{toc}{\contentsline {subsubsection}{\numberline {\unhbox \voidb@x \hbox {IV-A}1}Part Interaction Clusters, Morato 2013}{7}}
\@writefile{toc}{\contentsline {subsubsection}{\numberline {\unhbox \voidb@x \hbox {IV-A}2}Subassembly Generation from CAD, Belhadj 2017}{7}}
\bibdata{ASP_MotPre.bib}
\bibcite{simplifiedGenAllSeq_GEARTRAIN}{1}
\bibcite{PostProcessingRafiCampbell}{2}
\bibcite{plansForRobotExec}{3}
\bibcite{mnfgTime}{4}
\@writefile{lot}{\contentsline {table}{\numberline {II}{\ignorespaces Tested Products\relax }}{8}}
\newlabel{testedAsm}{{II}{8}}
\@writefile{lof}{\contentsline {figure}{\numberline {5}{\ignorespaces Robot, effector, and disassembly area\relax }}{8}}
\newlabel{robotSetup}{{5}{8}}
\@writefile{toc}{\contentsline {section}{\numberline {V}Results}{8}}
\newlabel{SECT_results}{{V}{8}}
\@writefile{lot}{\contentsline {table}{\numberline {III}{\ignorespaces Tested Products, Disassembly Best-Longest Path\relax }}{8}}
\newlabel{asmDisasmAct}{{III}{8}}
\@writefile{lof}{\contentsline {figure}{\numberline {6}{\ignorespaces Morato Disassembly Sequence (Long), Complete assembly upper left, Precedence levels shown horizontally\relax }}{8}}
\newlabel{MoratoPlanLong}{{6}{8}}
\@writefile{toc}{\contentsline {section}{\numberline {VI}Conclusion}{8}}
\newlabel{SECT_conclusion}{{VI}{8}}
\@writefile{toc}{\contentsline {section}{\numberline {VII}Future Work}{8}}
\@writefile{toc}{\contentsline {section}{References}{8}}
\bibcite{ANDOR_original}{5}
\bibcite{taxonomyOverview}{6}
\bibcite{validationBlock_kheder2017}{7}
\bibcite{IKEA}{8}
\bibcite{kmeansRRT45}{9}
\bibcite{volumeAreaFitness2}{10}
\bibcite{volumeAreaFitness}{11}
\bibcite{topologyCycleMerge}{12}
\bibcite{userDefinedConstraintDir}{13}
\bibcite{RestrictCollsnChecksSampleIsocahedron}{14}
\bibcite{CollsnCheckSubsOnly}{15}
\bibcite{OpposingFacetNormals}{16}
\bibcite{InferringAsmDirectionsPCL}{17}
\bibcite{EfficientCollisionByProjection_RGHTANGLGBOX}{18}
\bibcite{fuzzyCurveDetect_Campbell}{19}
\bibcite{AsmSizeComplexity}{20}
\bibcite{subComplexity}{21}
\bibcite{BigPartsSupportSubs}{22}
\bibcite{forceFlowDisasm}{23}
\bibcite{maxFlowMinCut}{24}
\bibcite{SurveyAngryReviewer}{25}
\@writefile{lof}{\contentsline {figure}{\numberline {7}{\ignorespaces Morato Disassembly Sequence (Short), Complete assembly upper left, Precedence levels shown horizontally\relax }}{9}}
\newlabel{MoratoPlanShort}{{7}{9}}
\@writefile{lof}{\contentsline {figure}{\numberline {8}{\ignorespaces Belhadj Disassembly Sequence, Complete assembly upper left, Precedence levels shown horizontally\relax }}{9}}
\newlabel{BelhadjPlan}{{8}{9}}
\@writefile{lof}{\contentsline {figure}{\numberline {9}{\ignorespaces Sequencing by Interference Reduction, Complete assembly upper left, Precedence levels shown horizontally\relax }}{9}}
\newlabel{SIRPlan}{{9}{9}}
\@writefile{lot}{\contentsline {table}{\numberline {IV}{\ignorespaces Tested Products, Worst Longest Path Length Comparison\relax }}{9}}
\newlabel{asmPathLen}{{IV}{9}}
\bibcite{NDBGoriginal}{26}
\bibcite{StabilityForGraphSearch}{27}
\bibcite{FastenerPredicateAngryReviewer}{28}
\bibcite{FastenerEnvelopePredicate}{29}
\bibcite{ghandi2015breakout}{30}
\bibcite{GAStabilityScoreLocalCollision}{31}
\bibcite{GAShuffleChemotaxisBasisVec}{32}
\bibcite{GAOtherLongSeq}{33}
\bibcite{GAAccessibleRotation}{34}
\bibcite{GALengthFeasible}{35}
\bibcite{FireWorksDiscrete}{36}
\bibcite{FireflyVisualRange}{37}
\bibcite{GravityFirefly}{38}
\bibcite{SingleArmAsmRegraspWanHarada}{39}
\bibcite{SandiaModularFixture}{40}
\bibcite{FxtrSocialAutoBody}{41}
\bibcite{SupportOnPinsWanHarada}{42}
\bibcite{flexibleParts}{43}
\bibcite{geodesic}{44}
\bibcite{freedomCone}{45}
\bibcite{projectionCone2p5D}{46}
\bibcite{HANDEY}{47}
\bibcite{RegraspSphericalWanHarada}{48}
\bibcite{SphericalFreedomProjectedSurfaces}{49}
\bibcite{clusterMeshGrasp}{50}
\bibcite{antColony_DRIVEMOTOR}{51}
\bibcite{toyPlane_lee}{52}
\bibstyle{ieeetr}
\@writefile{lot}{\contentsline {table}{\numberline {V}{\ignorespaces Tested Products, Rotation Action Comparison\relax }}{10}}
\newlabel{asmRotatnAct}{{V}{10}}
