This is BibTeX, Version 0.99d (TeX Live 2015/Debian)
Capacity: max_strings=35307, hash_size=35307, hash_prime=30011
The top-level auxiliary file: Subasm ID w Interference Reduction.aux
The style file: ieeetr.bst
Database file #1: ASP_MotPre.bib.bib
Warning--empty journal in InferringAsmDirectionsPCL
Warning--can't use both author and editor fields in freedomCone
You've used 52 entries,
            1876 wiz_defined-function locations,
            814 strings with 14213 characters,
and the built_in function-call counts, 16316 in all, are:
= -- 1724
> -- 528
< -- 0
+ -- 195
- -- 143
* -- 1118
:= -- 2176
add.period$ -- 55
call.type$ -- 52
change.case$ -- 50
chr.to.int$ -- 0
cite$ -- 54
duplicate$ -- 861
empty$ -- 1509
format.name$ -- 143
if$ -- 4042
int.to.chr$ -- 0
int.to.str$ -- 52
missing$ -- 52
newline$ -- 162
num.names$ -- 52
pop$ -- 145
preamble$ -- 1
purify$ -- 0
quote$ -- 0
skip$ -- 670
stack$ -- 0
substring$ -- 1366
swap$ -- 415
text.length$ -- 0
text.prefix$ -- 0
top$ -- 0
type$ -- 0
warning$ -- 2
while$ -- 170
width$ -- 54
write$ -- 525
(There were 2 warnings)
